-------------------------------------------------------------------------------
Test set: ee.jakarta.tck.ws.rs.spec.provider.standard.JAXRSClientIT
-------------------------------------------------------------------------------
Tests run: 8, Failures: 0, Errors: 0, Skipped: 0, Time elapsed: 0.367 s - in ee.jakarta.tck.ws.rs.spec.provider.standard.JAXRSClientIT
