-------------------------------------------------------------------------------
Test set: ee.jakarta.tck.ws.rs.ee.rs.core.configurable.JAXRSClientIT
-------------------------------------------------------------------------------
Tests run: 21, Failures: 0, Errors: 0, Skipped: 0, Time elapsed: 0.335 s - in ee.jakarta.tck.ws.rs.ee.rs.core.configurable.JAXRSClientIT
