-------------------------------------------------------------------------------
Test set: ee.jakarta.tck.ws.rs.spec.context.server.JAXRSClientIT
-------------------------------------------------------------------------------
Tests run: 5, Failures: 0, Errors: 0, Skipped: 0, Time elapsed: 0.305 s - in ee.jakarta.tck.ws.rs.spec.context.server.JAXRSClientIT
