-------------------------------------------------------------------------------
Test set: ee.jakarta.tck.ws.rs.api.rs.core.linkjaxblink.JAXRSClientIT
-------------------------------------------------------------------------------
Tests run: 3, Failures: 0, Errors: 0, Skipped: 0, Time elapsed: 0.001 s - in ee.jakarta.tck.ws.rs.api.rs.core.linkjaxblink.JAXRSClientIT
