-------------------------------------------------------------------------------
Test set: ee.jakarta.tck.ws.rs.ee.rs.cookieparam.JAXRSClientIT
-------------------------------------------------------------------------------
Tests run: 17, Failures: 0, Errors: 0, Skipped: 0, Time elapsed: 0.33 s - in ee.jakarta.tck.ws.rs.ee.rs.cookieparam.JAXRSClientIT
