-------------------------------------------------------------------------------
Test set: ee.jakarta.tck.ws.rs.ee.rs.headerparam.locator.JAXRSLocatorClientIT
-------------------------------------------------------------------------------
Tests run: 17, Failures: 0, Errors: 0, Skipped: 0, Time elapsed: 0.611 s - in ee.jakarta.tck.ws.rs.ee.rs.headerparam.locator.JAXRSLocatorClientIT
